<svg width="35" height="26" viewBox="0 0 35 26" fill="none" xmlns="http://www.w3.org/2000/svg">
<path d="M25.2475 3H1.75313C0.784819 3 0 2.3285 0 1.5C0 0.6715 0.784819 0 1.75313 0H25.2469C26.2152 0 27 0.6715 27 1.5C27 2.3285 26.2158 3 25.2475 3Z" transform="translate(27 4) rotate(-180)" fill="#333333"/>
<path d="M25.2475 3H1.75313C0.784819 3 0 2.3285 0 1.5C0 0.6715 0.784819 0 1.75313 0H25.2469C26.2152 0 27 0.6715 27 1.5C27.0006 2.3285 26.2158 3 25.2475 3Z" transform="translate(27 15) rotate(-180)" fill="#333333"/>
<path d="M25.2475 3H1.75313C0.784819 3 0 2.3285 0 1.5C0 0.6715 0.784819 0 1.75313 0H25.2469C26.2152 0 27 0.6715 27 1.5C27 2.3285 26.2158 3 25.2475 3Z" transform="translate(27 25) rotate(-180)" fill="#333333"/>
<path d="M2.5 5C3.88071 5 5 3.88071 5 2.5C5 1.11929 3.88071 0 2.5 0C1.11929 0 0 1.11929 0 2.5C0 3.88071 1.11929 5 2.5 5Z" transform="translate(35 26) rotate(-180)" fill="#333333"/>
<path d="M2.5 5C3.88071 5 5 3.88071 5 2.5C5 1.11929 3.88071 0 2.5 0C1.11929 0 0 1.11929 0 2.5C0 3.88071 1.11929 5 2.5 5Z" transform="translate(35 15) rotate(-180)" fill="#333333"/>
<path d="M2.5 5C3.88071 5 5 3.88071 5 2.5C5 1.11929 3.88071 0 2.5 0C1.11929 0 0 1.11929 0 2.5C0 3.88071 1.11929 5 2.5 5Z" transform="translate(35 5) rotate(-180)" fill="#333333"/>
</svg>
