<svg width="15" height="17" viewBox="0 0 15 17" fill="none" xmlns="http://www.w3.org/2000/svg">
<path d="M13.4016 9.63082L2.15156 16.6621C1.92393 16.8042 1.66509 16.8756 1.40625 16.8756C1.17176 16.8756 0.936914 16.8173 0.724395 16.6992C0.277383 16.4513 0 15.9809 0 15.4694V1.40689C0 0.895371 0.277383 0.424981 0.724395 0.177129C1.17141 -0.0721288 1.718 -0.0570116 2.15156 0.214219L13.4016 7.24547C13.8125 7.50299 14.0625 7.95343 14.0625 8.43814C14.0625 8.92286 13.8125 9.37339 13.4016 9.63082Z" transform="translate(0.875 0.0620117)" fill="#DADADA"/>
</svg>
